<style>
  body {
    background-color: black;
    font-family: monospace;
    color: green;
  }
   .blue-text {
    color: blue;
  }
  .pink-text {
    color: pink;
  }
  #orange-text {
    color:orange;
  }
 

</style>
<h1 id="orange-text" class="pink-text blue-text">Hello World!</h1>
