com/ex/persistence/exceptions/ConnectionException.class
com/ex/persistence/ReimbursementPersistenceImpl.class
com/ex/persistence/PostgresConnectionFactory.class
com/ex/web/listener/ContextLoadListenerEmp.class
com/ex/models/EmpCredentials.class
com/ex/web/listener/ContextLoadListenerReim.class
com/ex/web/EmployeeServlet.class
com/ex/persistence/ReimbursementPersistence.class
com/ex/models/ManCredentials.class
com/ex/persistence/ConnectionFactory.class
com/ex/persistence/EmployeePersistence.class
com/ex/services/ReimbursementService.class
com/ex/persistence/EmployeePersistenceImpl.class
com/ex/services/EmployeeService.class
com/ex/models/Reimbursements.class
com/ex/persistence/Persistable.class
com/ex/web/exceptions/InitializationException.class
com/ex/models/Employee.class
com/ex/models/Manager.class
com/ex/web/ReimbursementServlet.class
